<?xml version="1.0" encoding="utf-8"?>
<!-- Generator: Adobe Illustrator 26.3.1, SVG Export Plug-In . SVG Version: 6.00 Build 0)  -->
<svg version="1.1" id="Laag_1" xmlns="http://www.w3.org/2000/svg" xmlns:xlink="http://www.w3.org/1999/xlink" x="0px" y="0px"
	 viewBox="0 0 244.4 118.8" style="enable-background:new 0 0 244.4 118.8;" xml:space="preserve">
<style type="text/css">
	.st0{fill:#EE3E33;}
	.st1{fill:#007AC1;}
	.st2{fill:#231F20;}
</style>
<g>
	<path class="st0" d="M67.7,9.6c-0.3-2.5-0.8-5.1-4.1-5.8c-1.5-0.1-3.5-0.1-5,1.1c-5.3,4-4.7,11.9-2.7,16.9
		c6.4,14.6,25.5,28.3,16.7,45.9l-3.3-2.8c0.2-0.3,2.2-4.6,1.4-9.2c-1.1-6.5-5.2-11.9-9.3-17.6c-4.7-6.6-9.3-13.4-10.5-20.3
		c-0.8-4.5-0.5-9.8,3.5-14.3C58.2-0.9,64.7-1,68.5,2.3c1.9,1.9,2.8,4.3,2.7,7.1L67.7,9.6z"/>
	<path class="st0" d="M82.3,16.7c-4.5-0.1-8.8-0.2-13.7-0.1c-2.2,0.1-2.8,0.7-2.8,1.9c-0.1,2,2.2,6.2,4.2,8.9
		c3.9,5.2,8.2,10.5,12.4,15.6c5.4,6.6,10.5,12.4,12.4,19.8c1.5,7.1-2.2,14.2-7.1,19.6l-2.8-2.6c5.4-6.2,6.9-11.5,5.9-16.7
		c-2.2-7.7-9.5-15.5-17.1-25c-4.7-6-7.3-9.3-10.4-14.7c-1.4-2.6-2.2-6.3-0.5-8.6c1.8-2.8,8.5-1.7,12.2-1.8l7.4,0.1L82.3,16.7z"/>
	<path class="st0" d="M65.2,55.9C57.4,48,48.9,40.2,38.8,35.4c-4.5-2-16.3-6-26.3-3.2c-2,0.4-4.7,1.6-6.4,2.5
		c-2.2,1.2-5.6,3.8-5.2,3.8l2.5,3.2c1.1-0.9,6.1-5.2,12.4-6c17.8-2.5,35.2,11.3,47.7,23.8L65.2,55.9z"/>
	<path class="st0" d="M20.4,115c0.6-3,2.3-9.4-0.3-16.5l4.2-1.3c0.5,1.3,1.6,4.5,1.7,8.5c0.1,3.9-1,8.5-1.4,10L20.4,115z"/>
	<path class="st1" d="M100,89.4l-10.7,4.5c-8.4,3.1-18,2.3-27-1c-7.2-2.8-13.4-5.6-20.8-7.9c-10.1-3.2-21-3.8-30.8-0.9
		C6.9,85.2,3.4,87.2,0,89.4l2.4,3.4c6.1-4.2,13.6-6.5,21.2-6.6c7.3-0.1,14.8,1.7,20.7,4c4.7,1.8,17,7,21.6,8.2
		c4.8,1.3,11.3,2.1,16.1,1.5c7.3-1,13.4-4.1,19.6-7L100,89.4z"/>
	<path class="st1" d="M93.3,99.1c0,0-7.3,3.3-12.5,3.3l0.4,4.2c0.5,0,1.1-0.1,1.6-0.2c4.4-0.6,8.4-2,12.2-3.6L93.3,99.1z"/>
	<path class="st1" d="M94,105.2c0,0-6.1,2.8-12.5,3.3l0.4,4.2c0.5,0,1.1-0.1,1.6-0.2c4.4-0.6,8.4-2,12.2-3.6L94,105.2z"/>
	<path class="st1" d="M94.7,111.4c0,0-6.5,3-12.5,3.3l0.4,4.2c0.5,0,1.1-0.1,1.6-0.2c4.4-0.6,8.4-2,12.2-3.6L94.7,111.4z"/>
	<path class="st2" d="M123.2,35c0.1,0,0.3,0,0.4,0c0.1,0,0.3,0,0.4,0v7.9c-0.2,0-0.3,0-0.4,0c-0.2,0-0.3,0-0.4,0v-4
		c-0.7,0-1.4-0.1-2.1-0.1c-0.7,0-1.4,0-2.1,0.1v4c-0.2,0-0.3,0-0.4,0c-0.2,0-0.3,0-0.4,0V35c0.1,0,0.3,0,0.4,0c0.1,0,0.3,0,0.4,0
		v3.3c0.7,0,1.4,0.1,2.1,0.1c0.7,0,1.4,0,2.1-0.1V35z"/>
	<path class="st2" d="M125.9,39c0-2.5,1.6-4.1,3.7-4.1c1.9,0,3.8,1.2,3.8,4c0,2.6-1.6,4.3-3.8,4.3C127.3,43.1,125.9,41.4,125.9,39
		 M131.8,36.3c-0.5-0.7-1.3-1.1-2.1-1.1c-1.8,0-2.8,1.5-2.8,3.9c0,2.4,1.3,3.6,2.8,3.6c2.1,0,2.9-2.5,2.8-3.8
		C132.4,37.9,132.3,37.1,131.8,36.3"/>
	<path class="st2" d="M134.8,39c0-2.5,1.6-4.1,3.7-4.1c1.9,0,3.8,1.2,3.8,4c0,2.6-1.6,4.3-3.8,4.3C136.3,43.1,134.8,41.4,134.8,39
		 M140.8,36.3c-0.5-0.7-1.3-1.1-2.1-1.1c-1.8,0-2.8,1.5-2.8,3.9c0,2.4,1.3,3.6,2.8,3.6c2.1,0,2.9-2.5,2.8-3.8
		C141.4,37.9,141.3,37.1,140.8,36.3"/>
	<path class="st2" d="M150.2,36.4c-0.6-0.7-1.4-1.1-2.3-1.1c-1.7,0-2.9,1.3-2.9,3.6c0,2.3,1,3.7,3,3.7c0.5,0,1.1-0.1,1.6-0.4v-3
		c0.1,0,0.3,0,0.4,0c0.1,0,0.3,0,0.4,0v3.3c-0.9,0.3-1.8,0.5-2.7,0.5c-2.6,0-3.7-1.8-3.7-4.1c0-2.7,1.7-4.1,3.9-4.1
		c1.5,0,2.4,0.5,2.6,0.7c-0.1,0.3-0.2,0.6-0.2,0.9H150.2z"/>
	<path class="st2" d="M157.8,35c0.1,0,0.3,0,0.4,0c0.1,0,0.3,0,0.4,0v7.9c-0.2,0-0.3,0-0.4,0c-0.2,0-0.3,0-0.4,0v-4
		c-0.7,0-1.4-0.1-2.1-0.1s-1.4,0-2.1,0.1v4c-0.2,0-0.3,0-0.4,0c-0.2,0-0.3,0-0.4,0V35c0.1,0,0.3,0,0.4,0c0.1,0,0.3,0,0.4,0v3.3
		c0.7,0,1.4,0.1,2.1,0.1c0.7,0,1.4,0,2.1-0.1V35z"/>
	<path class="st2" d="M162,38.5h1.6c0.3,0,0.6,0,0.9-0.1c0,0.1,0,0.2,0,0.3c0,0.1,0,0.2,0,0.3c-0.3,0-0.6-0.1-0.9-0.1H162v3.4
		c0.6,0,1.2,0,1.8,0c0.3,0,0.6,0,0.9-0.1c0,0.1,0,0.2,0,0.4c0,0.1,0,0.2,0,0.3h-3.6V35h3.6c0,0.1,0,0.2,0,0.3s0,0.2,0,0.3
		c-0.3-0.1-0.6-0.1-0.9-0.1l-1,0H162V38.5z"/>
	<path class="st2" d="M167.6,38.5h1.6c0.3,0,0.6,0,0.9-0.1c0,0.1,0,0.2,0,0.3c0,0.1,0,0.2,0,0.3c-0.3,0-0.6-0.1-0.9-0.1h-1.6v3.4
		c0.6,0,1.2,0,1.8,0c0.3,0,0.6,0,0.9-0.1c0,0.1,0,0.2,0,0.4c0,0.1,0,0.2,0,0.3h-3.6V35h3.6c0,0.1,0,0.2,0,0.3s0,0.2,0,0.3
		c-0.3-0.1-0.6-0.1-0.9-0.1l-1,0h-0.8V38.5z"/>
	<path class="st2" d="M179,35c0.3,2.9,0.5,5.7,0.8,7.9c-0.2,0-0.3,0-0.5,0c-0.2,0-0.3,0-0.5,0c-0.2-2.3-0.4-4.8-0.5-6
		c-1.2,2.4-2,4.3-2.6,5.9h-0.1l-0.6-1.3c-0.6-1.5-1.4-3-2-4.6c-0.2,2.3-0.5,4.6-0.5,6c-0.1,0-0.2,0-0.4,0c-0.1,0-0.2,0-0.4,0
		c0.3-1.9,0.9-6.7,1-7.9h0.3c0.8,1.8,1.8,4,2.9,6.1c1-2,1.9-4,2.9-6.1H179z"/>
	<path class="st2" d="M181.8,35h2.1c1.6,0,2.2,0.6,2.2,1.8c0,1.3-1.1,2-2.1,2.2l2.1,3l0.5,0.6l0.2,0.3c-0.2,0-0.4,0-0.6,0
		c-0.2,0-0.4,0-0.6,0c-0.2-0.4-0.4-0.7-0.6-1l-1.2-1.8l-0.8-1.1h-0.4v3.9c-0.2,0-0.3,0-0.4,0c-0.2,0-0.3,0-0.4,0V35z M182.7,38.6
		c0.1,0,0.8,0.1,1.3-0.1c0.7-0.2,1.3-0.8,1.3-1.7c0-0.8-0.4-1.3-1.1-1.5c-0.4-0.1-1.1,0-1.5,0V38.6z"/>
	<path class="st2" d="M194.2,42.9c-0.2,0-0.4,0-0.5,0c-0.2,0-0.4,0-0.5,0c-0.3-1-0.7-2.1-1.1-3.1h-2.6c-0.4,1-0.7,2-1,3.1
		c-0.1,0-0.3,0-0.4,0c-0.1,0-0.2,0-0.4,0l3.1-8.1h0.2L194.2,42.9z M190.8,36.3l-1.1,3h2.2L190.8,36.3z"/>
	<path class="st2" d="M201.5,42.9c-0.2,0-0.4,0-0.5,0c-0.2,0-0.4,0-0.5,0c-0.3-1-0.7-2.1-1.1-3.1h-2.6c-0.4,1-0.7,2-1,3.1
		c-0.1,0-0.3,0-0.4,0c-0.1,0-0.2,0-0.4,0l3.2-8.1h0.2L201.5,42.9z M198.1,36.3l-1.1,3h2.2L198.1,36.3z"/>
	<path class="st2" d="M203.2,35h2.3c1.1,0,2.1-0.1,2.9,0.7c0.8,0.7,1.1,1.8,1.1,2.9c0,1.6-0.5,2.7-1.3,3.4c-0.9,0.9-2,0.9-3,0.9h-2
		V35z M204.1,42.4c0.9,0.1,2.1,0.2,3-0.3c1.1-0.6,1.5-1.9,1.5-3.3c0-2.5-0.9-3.4-3.1-3.4c-0.4,0-0.8,0-1.3,0V42.4z"/>
	<path class="st2" d="M211.4,41.4c0.4,0.7,0.8,1.2,1.6,1.2c0.8,0,1.4-0.8,1.4-1.7c0-2.2-3.2-1.2-3.2-3.8c0-1.5,1-2.2,2.2-2.2
		c0.5,0,1.1,0.2,1.4,0.6c-0.1,0.3-0.2,0.6-0.3,1h-0.1c-0.2-0.6-0.7-1-1.3-1c-0.7,0-1.3,0.5-1.3,1.4c0,2.1,3.2,1.3,3.2,3.7
		c0,1.7-1.1,2.6-2.5,2.6c-0.5,0-1.3-0.2-1.6-0.7c0.1-0.3,0.2-0.7,0.2-1H211.4z"/>
	<path class="st2" d="M222.4,42.4c-0.6,0.5-1.5,0.7-2.2,0.7c-2.2,0-3.6-1.6-3.6-4.2c0-2.6,1.7-4.1,3.8-4.1c0.7,0,1.5,0.2,2.2,0.5
		c-0.1,0.3-0.2,0.6-0.2,0.9l-0.1,0c-0.1-0.2-0.9-1-1.9-1c-1.9,0-2.8,1.7-2.8,3.7c0,2.2,1.1,3.7,2.7,3.7c1.1,0,1.9-0.7,2.1-0.9
		L222.4,42.4z"/>
	<path class="st2" d="M229.6,35c0.1,0,0.3,0,0.4,0c0.1,0,0.3,0,0.4,0v7.9c-0.2,0-0.3,0-0.4,0c-0.2,0-0.3,0-0.4,0v-4
		c-0.7,0-1.4-0.1-2.1-0.1s-1.4,0-2.1,0.1v4c-0.2,0-0.3,0-0.4,0c-0.2,0-0.3,0-0.4,0V35c0.1,0,0.3,0,0.4,0c0.1,0,0.3,0,0.4,0v3.3
		c0.7,0,1.4,0.1,2.1,0.1c0.7,0,1.4,0,2.1-0.1V35z"/>
	<path class="st2" d="M238.5,42.9c-0.2,0-0.4,0-0.5,0c-0.2,0-0.4,0-0.5,0c-0.3-1-0.7-2.1-1.1-3.1h-2.6c-0.4,1-0.7,2-1,3.1
		c-0.1,0-0.3,0-0.4,0c-0.1,0-0.2,0-0.4,0l3.1-8.1h0.2L238.5,42.9z M235.1,36.3l-1.1,3h2.2L235.1,36.3z"/>
	<path class="st2" d="M240.9,42.9c-0.2,0-0.3,0-0.4,0c-0.2,0-0.3,0-0.4,0V35h1.8c2,0,2.6,0.5,2.6,1.9c0,1.4-0.7,2-2.2,2.4
		c-0.5,0.1-1.1,0-1.4,0V42.9z M240.9,38.8c0.3,0,0.7,0,1,0c1-0.1,1.6-0.8,1.6-1.9c0-0.8-0.3-1.4-1.1-1.5c-0.4,0-1.2,0-1.5,0V38.8z"
		/>
	<path class="st2" d="M124.7,45.6c4.5,0.2,6.4,3.3,6.4,6.8c0,4.8-3.4,7.6-7.7,7.6h-5.9V45.6H124.7z M120.7,58.8h1.8
		c2.9,0,5.1-1.5,5.1-6.4c0-4-1.9-5.6-4.9-5.6h-2.1V58.8z"/>
	<path class="st2" d="M142.3,45.6c0,0.3-0.1,0.6-0.1,0.9c0,0.3,0.1,0.6,0.1,0.9c-1.3-0.2-2.7-0.3-4.9-0.3v4.6h2.2
		c1,0,1.8-0.1,2.6-0.2c0,0.3-0.1,0.6-0.1,0.9c0,0.3,0.1,0.6,0.1,0.9c-0.8-0.1-1.7-0.2-2.6-0.2h-2.2v5.4c2.2,0,3.6-0.1,4.9-0.3
		c0,0.3-0.1,0.6-0.1,0.9c0,0.3,0.1,0.6,0.1,0.9h-8.1V45.6H142.3z"/>
	<path class="st2" d="M158,48.4c-0.4-1.1-1.2-1.8-2.4-1.8c-1.7,0-2.3,0.9-2.3,2.1c0,2.9,6.4,2.3,6.4,7.2c0,2.7-2.3,4.7-5.6,4.7
		c-1.2,0-2.4-0.3-3.4-0.9c0.3-0.9,0.5-1.8,0.6-2.7h0.4c0.3,1.5,1.5,2.3,2.9,2.3c1.3,0,2.5-0.7,2.5-2.2c0-3.4-6.3-2.2-6.3-7.3
		c0-2.4,1.7-4.4,4.9-4.4c1.5,0,2.9,0.6,3.3,1c-0.3,0.7-0.5,1.4-0.7,2.1H158z"/>
	<path class="st2" d="M168.2,60.2c-0.5,0-1.1-0.1-1.6-0.1c-0.5,0-1.1,0.1-1.6,0.1v-13c-1.5,0-2.8,0.1-3.9,0.3c0-0.3,0.1-0.6,0.1-0.9
		c0-0.3-0.1-0.6-0.1-0.9H172c0,0.3-0.1,0.6-0.1,0.9c0,0.3,0.1,0.6,0.1,0.9c-1.2-0.1-2.5-0.3-3.8-0.3V60.2z"/>
	<path class="st2" d="M174.8,45.6c0.5,0,1.1,0.1,1.6,0.1c0.5,0,1.1-0.1,1.6-0.1v14.5c-0.5,0-1.1-0.1-1.6-0.1c-0.5,0-1.1,0.1-1.6,0.1
		V45.6z"/>
	<path class="st2" d="M193.4,57.7l-0.5,1.8c-1.3,0.7-2.8,0.9-4.2,0.9c-4.5,0-8-2.8-8-7.1c0-5.5,3.8-8.1,8.4-8.1c1.4,0,3.1,0.4,4.3,1
		c-0.2,0.7-0.3,1.4-0.5,2.2h-0.3c-0.8-1.1-2.1-1.9-3.5-1.9c-3.5,0-4.9,3.4-4.9,6.5c0,3.6,1.8,6.2,5,6.2c1.3,0,2.8-0.7,3.8-1.6
		L193.4,57.7z"/>
	<path class="st2" d="M196.6,45.6c0.5,0,1.1,0.1,1.6,0.1c0.5,0,1.1-0.1,1.6-0.1v5.7c1.1,0,2.2,0.1,3.2,0.1c1.1,0,2.2-0.1,3.2-0.1
		v-5.7c0.5,0,1.1,0.1,1.6,0.1c0.5,0,1.1-0.1,1.6-0.1v14.5c-0.5,0-1.1-0.1-1.6-0.1c-0.5,0-1.1,0.1-1.6,0.1v-7.1
		c-1.1,0-2.2-0.1-3.2-0.1c-1.1,0-2.2,0.1-3.2,0.1v7.1c-0.5,0-1.1-0.1-1.6-0.1c-0.5,0-1.1,0.1-1.6,0.1V45.6z"/>
	<path class="st2" d="M219.1,60.2c-0.5,0-1.1-0.1-1.6-0.1c-0.5,0-1.1,0.1-1.6,0.1v-13c-1.5,0-2.8,0.1-3.9,0.3c0-0.3,0.1-0.6,0.1-0.9
		c0-0.3-0.1-0.6-0.1-0.9h10.9c0,0.3-0.1,0.6-0.1,0.9c0,0.3,0.1,0.6,0.1,0.9c-1.3-0.1-2.5-0.3-3.8-0.3V60.2z"/>
	<path class="st2" d="M232,48.4c-0.4-1.1-1.2-1.8-2.4-1.8c-1.7,0-2.3,0.9-2.3,2.1c0,2.9,6.4,2.3,6.4,7.2c0,2.7-2.3,4.7-5.6,4.7
		c-1.2,0-2.4-0.3-3.4-0.9c0.3-0.9,0.5-1.8,0.6-2.7h0.4c0.3,1.5,1.5,2.3,2.9,2.3c1.3,0,2.5-0.7,2.5-2.2c0-3.4-6.3-2.2-6.3-7.3
		c0-2.4,1.7-4.4,4.9-4.4c1.5,0,2.9,0.6,3.3,1c-0.3,0.7-0.5,1.4-0.7,2.1H232z"/>
	<path class="st2" d="M244.4,45.6c0,0.3-0.1,0.6-0.1,0.9c0,0.3,0.1,0.6,0.1,0.9c-1.3-0.2-2.7-0.3-4.9-0.3v4.6h2.2
		c1,0,1.8-0.1,2.6-0.2c0,0.3-0.1,0.6-0.1,0.9c0,0.3,0.1,0.6,0.1,0.9c-0.8-0.1-1.7-0.2-2.6-0.2h-2.2v5.4c2.2,0,3.6-0.1,4.9-0.3
		c0,0.3-0.1,0.6-0.1,0.9c0,0.3,0.1,0.6,0.1,0.9h-8.1V45.6H244.4z"/>
	<path class="st2" d="M117.3,62.8h4.5c1,0,2.5,0,3.4,0.4c1.2,0.6,1.8,1.6,1.8,3c0,2.1-1.3,3.4-3.3,3.8c1.2,2,2.5,4,3.7,6l0.8,1.3
		c-0.6,0-1.3-0.1-1.9-0.1c-0.6,0-1.3,0.1-1.9,0.1l-2.5-4.4c-0.3-0.6-0.9-1.5-1.4-2.4h-0.1v6.8c-0.5,0-1.1-0.1-1.6-0.1
		c-0.5,0-1.1,0.1-1.6,0.1V62.8z M120.5,69.6c2.2,0.2,3.3-0.8,3.3-3c0-0.3,0-0.6-0.1-1.1c-0.3-1.8-1.9-1.6-3.2-1.6V69.6z"/>
	<path class="st2" d="M130.8,62.8c0.5,0,1.1,0.1,1.6,0.1c0.5,0,1.1-0.1,1.6-0.1v14.5c-0.5,0-1.1-0.1-1.6-0.1c-0.5,0-1.1,0.1-1.6,0.1
		V62.8z"/>
	<path class="st2" d="M141.4,73.7c0,1.5,0.1,3.3-0.7,4.5c-0.9,1.5-2.3,2.2-4,2.4l-0.3-1c2-0.5,1.8-2.7,1.8-5.5V62.8
		c0.5,0,1.1,0.1,1.6,0.1c0.5,0,1.1-0.1,1.6-0.1V73.7z"/>
	<path class="st2" d="M145.2,62.8h2.1c3,3.3,6.2,6.5,9.1,9.9v-9.9c0.3,0,0.6,0.1,0.8,0.1c0.3,0,0.6,0,0.8-0.1v14.5l-1.8,0
		c-2.5-2.7-4.7-5.3-7.1-7.9l-2.3-2.4v10.3c-0.3,0-0.6-0.1-0.8-0.1c-0.3,0-0.6,0-0.8,0.1V62.8z"/>
	<path class="st2" d="M164.9,75.7c1.8,0,3.4-0.1,4.9-0.3c0,0.3-0.1,0.6-0.1,0.9c0,0.3,0.1,0.6,0.1,0.9h-8V62.8
		c0.5,0,1.1,0.1,1.6,0.1c0.5,0,1.1-0.1,1.6-0.1V75.7z"/>
	<path class="st2" d="M174.6,72.9c-0.6,1.6-1.1,2.9-1.5,4.4c-0.3,0-0.7-0.1-1-0.1c-0.3,0-0.7,0-1,0.1l6.1-14.7
		c0.3,0,0.5,0.1,0.8,0.1c0.3,0,0.5,0,0.8-0.1l5.9,14.7c-0.6,0-1.2-0.1-1.8-0.1c-0.6,0-1.2,0.1-1.8,0.1c-0.5-1.6-0.9-3-1.5-4.4H174.6
		z M179.1,71.6l-1.9-4.9l-2,4.9H179.1z"/>
	<path class="st2" d="M187,62.8h2.1c3,3.3,6.2,6.5,9.1,9.9v-9.9c0.3,0,0.6,0.1,0.8,0.1c0.3,0,0.6,0,0.8-0.1v14.5l-1.8,0
		c-2.5-2.7-4.7-5.3-7.1-7.9l-2.3-2.4v10.3c-0.3,0-0.6-0.1-0.8-0.1c-0.3,0-0.6,0-0.8,0.1V62.8z"/>
	<path class="st2" d="M211,62.8c4.5,0.2,6.4,3.3,6.4,6.8c0,4.8-3.4,7.6-7.7,7.6h-5.9V62.8H211z M206.9,76h1.8c2.9,0,5.1-1.5,5.1-6.4
		c0-4-1.9-5.6-4.9-5.6h-2.1V76z"/>
	<path class="st2" d="M228.3,62.8c0,0.3-0.1,0.6-0.1,0.9c0,0.3,0.1,0.6,0.1,0.9c-1.3-0.2-2.7-0.3-4.9-0.3v4.6h2.2
		c1,0,1.8-0.1,2.6-0.2c0,0.3-0.1,0.6-0.1,0.9c0,0.3,0.1,0.6,0.1,0.9c-0.8-0.1-1.7-0.2-2.6-0.2h-2.2v5.4c2.2,0,3.6-0.1,4.9-0.3
		c0,0.3-0.1,0.6-0.1,0.9c0,0.3,0.1,0.6,0.1,0.9h-8.1V62.8H228.3z"/>
	<path class="st2" d="M231.2,62.8h2.1c3,3.3,6.2,6.5,9.2,9.9v-9.9c0.3,0,0.6,0.1,0.8,0.1c0.3,0,0.6,0,0.8-0.1v14.5l-1.8,0
		c-2.5-2.7-4.7-5.3-7.1-7.9l-2.3-2.4v10.3c-0.3,0-0.6-0.1-0.8-0.1c-0.3,0-0.6,0-0.8,0.1V62.8z"/>
</g>
</svg>
